…
## When I tried to convert character variable from character to factor to numeric, I was able to make the conversion and the output was numeric. However, when I tried converting factor variable from factor to character to numeric, the output was all NA.

Problem 2

## Creating a data frame 
plot_df = tibble(
  x = rnorm(1000),
  y = rnorm(1000),
  x + y > 0,
  as.numeric(as.logical(x + y > 0)),
  as.factor(as.logical(x + y > 0))
)
plot_df

## # A tibble: 1,000 x 5
##         x       y `x + y > 0` `as.numeric(as.logica `as.factor(as.logica
##     <dbl>   <dbl> <lgl>                        <dbl> <fct>                
##  1 -0.855 -0.484  FALSE                            0 FALSE                
##  2  1.15   0.325  TRUE                             1 TRUE                 
##  3  1.88  -2.35   FALSE                            0 FALSE                
##  4 -0.679 -0.119  FALSE                            0 FALSE                
##  5  0.151  0.0529 TRUE                             1 TRUE                 
##  6  1.05   1.18   TRUE                             1 TRUE                 
##  7  0.140 -0.957  FALSE                            0 FALSE                
##  8 -0.564  1.23   TRUE                             1 TRUE                 
##  9 -0.790  0.161  FALSE                            0 FALSE                
## 10 -0.154 -0.300  FALSE                            0 FALSE                
## # ... with 990 more rows
…
